%!PS-Adobe-2.0 EPSF-2.0
%%Title: boundary.eps
%%Creator: gnuplot 4.6 patchlevel 5
%%CreationDate: Tue May 19 19:15:15 2015
%%DocumentFonts: (atend)
%%BoundingBox: 50 50 410 302
%%EndComments
%%BeginProlog
/gnudict 256 dict def
gnudict begin
%
% The following true/false flags may be edited by hand if desired.
% The unit line width and grayscale image gamma correction may also be changed.
%
/Color false def
/Blacktext false def
/Solid false def
/Dashlength 1 def
/Landscape false def
/Level1 false def
/Rounded false def
/ClipToBoundingBox false def
/SuppressPDFMark false def
/TransparentPatterns false def
/gnulinewidth 5.000 def
/userlinewidth gnulinewidth def
/Gamma 1.0 def
/BackgroundColor {-1.000 -1.000 -1.000} def
%
/vshift -116 def
/dl1 {
  10.0 Dashlength mul mul
  Rounded { currentlinewidth 0.75 mul sub dup 0 le { pop 0.01 } if } if
} def
/dl2 {
  10.0 Dashlength mul mul
  Rounded { currentlinewidth 0.75 mul add } if
} def
/hpt_ 31.5 def
/vpt_ 31.5 def
/hpt hpt_ def
/vpt vpt_ def
/doclip {
  ClipToBoundingBox {
    newpath 50 50 moveto 410 50 lineto 410 302 lineto 50 302 lineto closepath
    clip
  } if
} def
%
% Gnuplot Prolog Version 4.6 (September 2012)
%
%/SuppressPDFMark true def
%
/M {moveto} bind def
/L {lineto} bind def
/R {rmoveto} bind def
/V {rlineto} bind def
/N {newpath moveto} bind def
/Z {closepath} bind def
/C {setrgbcolor} bind def
/f {rlineto fill} bind def
/g {setgray} bind def
/Gshow {show} def   % May be redefined later in the file to support UTF-8
/vpt2 vpt 2 mul def
/hpt2 hpt 2 mul def
/Lshow {currentpoint stroke M 0 vshift R 
	Blacktext {gsave 0 setgray show grestore} {show} ifelse} def
/Rshow {currentpoint stroke M dup stringwidth pop neg vshift R
	Blacktext {gsave 0 setgray show grestore} {show} ifelse} def
/Cshow {currentpoint stroke M dup stringwidth pop -2 div vshift R 
	Blacktext {gsave 0 setgray show grestore} {show} ifelse} def
/UP {dup vpt_ mul /vpt exch def hpt_ mul /hpt exch def
  /hpt2 hpt 2 mul def /vpt2 vpt 2 mul def} def
/DL {Color {setrgbcolor Solid {pop []} if 0 setdash}
 {pop pop pop 0 setgray Solid {pop []} if 0 setdash} ifelse} def
/BL {stroke userlinewidth 2 mul setlinewidth
	Rounded {1 setlinejoin 1 setlinecap} if} def
/AL {stroke userlinewidth 2 div setlinewidth
	Rounded {1 setlinejoin 1 setlinecap} if} def
/UL {dup gnulinewidth mul /userlinewidth exch def
	dup 1 lt {pop 1} if 10 mul /udl exch def} def
/PL {stroke userlinewidth setlinewidth
	Rounded {1 setlinejoin 1 setlinecap} if} def
3.8 setmiterlimit
% Default Line colors
/LCw {1 1 1} def
/LCb {0 0 0} def
/LCa {0 0 0} def
/LC0 {1 0 0} def
/LC1 {0 1 0} def
/LC2 {0 0 1} def
/LC3 {1 0 1} def
/LC4 {0 1 1} def
/LC5 {1 1 0} def
/LC6 {0 0 0} def
/LC7 {1 0.3 0} def
/LC8 {0.5 0.5 0.5} def
% Default Line Types
/LTw {PL [] 1 setgray} def
/LTb {BL [] LCb DL} def
/LTa {AL [1 udl mul 2 udl mul] 0 setdash LCa setrgbcolor} def
/LT0 {PL [] LC0 DL} def
/LT1 {PL [4 dl1 2 dl2] LC1 DL} def
/LT2 {PL [2 dl1 3 dl2] LC2 DL} def
/LT3 {PL [1 dl1 1.5 dl2] LC3 DL} def
/LT4 {PL [6 dl1 2 dl2 1 dl1 2 dl2] LC4 DL} def
/LT5 {PL [3 dl1 3 dl2 1 dl1 3 dl2] LC5 DL} def
/LT6 {PL [2 dl1 2 dl2 2 dl1 6 dl2] LC6 DL} def
/LT7 {PL [1 dl1 2 dl2 6 dl1 2 dl2 1 dl1 2 dl2] LC7 DL} def
/LT8 {PL [2 dl1 2 dl2 2 dl1 2 dl2 2 dl1 2 dl2 2 dl1 4 dl2] LC8 DL} def
/Pnt {stroke [] 0 setdash gsave 1 setlinecap M 0 0 V stroke grestore} def
/Dia {stroke [] 0 setdash 2 copy vpt add M
  hpt neg vpt neg V hpt vpt neg V
  hpt vpt V hpt neg vpt V closepath stroke
  Pnt} def
/Pls {stroke [] 0 setdash vpt sub M 0 vpt2 V
  currentpoint stroke M
  hpt neg vpt neg R hpt2 0 V stroke
 } def
/Box {stroke [] 0 setdash 2 copy exch hpt sub exch vpt add M
  0 vpt2 neg V hpt2 0 V 0 vpt2 V
  hpt2 neg 0 V closepath stroke
  Pnt} def
/Crs {stroke [] 0 setdash exch hpt sub exch vpt add M
  hpt2 vpt2 neg V currentpoint stroke M
  hpt2 neg 0 R hpt2 vpt2 V stroke} def
/TriU {stroke [] 0 setdash 2 copy vpt 1.12 mul add M
  hpt neg vpt -1.62 mul V
  hpt 2 mul 0 V
  hpt neg vpt 1.62 mul V closepath stroke
  Pnt} def
/Star {2 copy Pls Crs} def
/BoxF {stroke [] 0 setdash exch hpt sub exch vpt add M
  0 vpt2 neg V hpt2 0 V 0 vpt2 V
  hpt2 neg 0 V closepath fill} def
/TriUF {stroke [] 0 setdash vpt 1.12 mul add M
  hpt neg vpt -1.62 mul V
  hpt 2 mul 0 V
  hpt neg vpt 1.62 mul V closepath fill} def
/TriD {stroke [] 0 setdash 2 copy vpt 1.12 mul sub M
  hpt neg vpt 1.62 mul V
  hpt 2 mul 0 V
  hpt neg vpt -1.62 mul V closepath stroke
  Pnt} def
/TriDF {stroke [] 0 setdash vpt 1.12 mul sub M
  hpt neg vpt 1.62 mul V
  hpt 2 mul 0 V
  hpt neg vpt -1.62 mul V closepath fill} def
/DiaF {stroke [] 0 setdash vpt add M
  hpt neg vpt neg V hpt vpt neg V
  hpt vpt V hpt neg vpt V closepath fill} def
/Pent {stroke [] 0 setdash 2 copy gsave
  translate 0 hpt M 4 {72 rotate 0 hpt L} repeat
  closepath stroke grestore Pnt} def
/PentF {stroke [] 0 setdash gsave
  translate 0 hpt M 4 {72 rotate 0 hpt L} repeat
  closepath fill grestore} def
/Circle {stroke [] 0 setdash 2 copy
  hpt 0 360 arc stroke Pnt} def
/CircleF {stroke [] 0 setdash hpt 0 360 arc fill} def
/C0 {BL [] 0 setdash 2 copy moveto vpt 90 450 arc} bind def
/C1 {BL [] 0 setdash 2 copy moveto
	2 copy vpt 0 90 arc closepath fill
	vpt 0 360 arc closepath} bind def
/C2 {BL [] 0 setdash 2 copy moveto
	2 copy vpt 90 180 arc closepath fill
	vpt 0 360 arc closepath} bind def
/C3 {BL [] 0 setdash 2 copy moveto
	2 copy vpt 0 180 arc closepath fill
	vpt 0 360 arc closepath} bind def
/C4 {BL [] 0 setdash 2 copy moveto
	2 copy vpt 180 270 arc closepath fill
	vpt 0 360 arc closepath} bind def
/C5 {BL [] 0 setdash 2 copy moveto
	2 copy vpt 0 90 arc
	2 copy moveto
	2 copy vpt 180 270 arc closepath fill
	vpt 0 360 arc} bind def
/C6 {BL [] 0 setdash 2 copy moveto
	2 copy vpt 90 270 arc closepath fill
	vpt 0 360 arc closepath} bind def
/C7 {BL [] 0 setdash 2 copy moveto
	2 copy vpt 0 270 arc closepath fill
	vpt 0 360 arc closepath} bind def
/C8 {BL [] 0 setdash 2 copy moveto
	2 copy vpt 270 360 arc closepath fill
	vpt 0 360 arc closepath} bind def
/C9 {BL [] 0 setdash 2 copy moveto
	2 copy vpt 270 450 arc closepath fill
	vpt 0 360 arc closepath} bind def
/C10 {BL [] 0 setdash 2 copy 2 copy moveto vpt 270 360 arc closepath fill
	2 copy moveto
	2 copy vpt 90 180 arc closepath fill
	vpt 0 360 arc closepath} bind def
/C11 {BL [] 0 setdash 2 copy moveto
	2 copy vpt 0 180 arc closepath fill
	2 copy moveto
	2 copy vpt 270 360 arc closepath fill
	vpt 0 360 arc closepath} bind def
/C12 {BL [] 0 setdash 2 copy moveto
	2 copy vpt 180 360 arc closepath fill
	vpt 0 360 arc closepath} bind def
/C13 {BL [] 0 setdash 2 copy moveto
	2 copy vpt 0 90 arc closepath fill
	2 copy moveto
	2 copy vpt 180 360 arc closepath fill
	vpt 0 360 arc closepath} bind def
/C14 {BL [] 0 setdash 2 copy moveto
	2 copy vpt 90 360 arc closepath fill
	vpt 0 360 arc} bind def
/C15 {BL [] 0 setdash 2 copy vpt 0 360 arc closepath fill
	vpt 0 360 arc closepath} bind def
/Rec {newpath 4 2 roll moveto 1 index 0 rlineto 0 exch rlineto
	neg 0 rlineto closepath} bind def
/Square {dup Rec} bind def
/Bsquare {vpt sub exch vpt sub exch vpt2 Square} bind def
/S0 {BL [] 0 setdash 2 copy moveto 0 vpt rlineto BL Bsquare} bind def
/S1 {BL [] 0 setdash 2 copy vpt Square fill Bsquare} bind def
/S2 {BL [] 0 setdash 2 copy exch vpt sub exch vpt Square fill Bsquare} bind def
/S3 {BL [] 0 setdash 2 copy exch vpt sub exch vpt2 vpt Rec fill Bsquare} bind def
/S4 {BL [] 0 setdash 2 copy exch vpt sub exch vpt sub vpt Square fill Bsquare} bind def
/S5 {BL [] 0 setdash 2 copy 2 copy vpt Square fill
	exch vpt sub exch vpt sub vpt Square fill Bsquare} bind def
/S6 {BL [] 0 setdash 2 copy exch vpt sub exch vpt sub vpt vpt2 Rec fill Bsquare} bind def
/S7 {BL [] 0 setdash 2 copy exch vpt sub exch vpt sub vpt vpt2 Rec fill
	2 copy vpt Square fill Bsquare} bind def
/S8 {BL [] 0 setdash 2 copy vpt sub vpt Square fill Bsquare} bind def
/S9 {BL [] 0 setdash 2 copy vpt sub vpt vpt2 Rec fill Bsquare} bind def
/S10 {BL [] 0 setdash 2 copy vpt sub vpt Square fill 2 copy exch vpt sub exch vpt Square fill
	Bsquare} bind def
/S11 {BL [] 0 setdash 2 copy vpt sub vpt Square fill 2 copy exch vpt sub exch vpt2 vpt Rec fill
	Bsquare} bind def
/S12 {BL [] 0 setdash 2 copy exch vpt sub exch vpt sub vpt2 vpt Rec fill Bsquare} bind def
/S13 {BL [] 0 setdash 2 copy exch vpt sub exch vpt sub vpt2 vpt Rec fill
	2 copy vpt Square fill Bsquare} bind def
/S14 {BL [] 0 setdash 2 copy exch vpt sub exch vpt sub vpt2 vpt Rec fill
	2 copy exch vpt sub exch vpt Square fill Bsquare} bind def
/S15 {BL [] 0 setdash 2 copy Bsquare fill Bsquare} bind def
/D0 {gsave translate 45 rotate 0 0 S0 stroke grestore} bind def
/D1 {gsave translate 45 rotate 0 0 S1 stroke grestore} bind def
/D2 {gsave translate 45 rotate 0 0 S2 stroke grestore} bind def
/D3 {gsave translate 45 rotate 0 0 S3 stroke grestore} bind def
/D4 {gsave translate 45 rotate 0 0 S4 stroke grestore} bind def
/D5 {gsave translate 45 rotate 0 0 S5 stroke grestore} bind def
/D6 {gsave translate 45 rotate 0 0 S6 stroke grestore} bind def
/D7 {gsave translate 45 rotate 0 0 S7 stroke grestore} bind def
/D8 {gsave translate 45 rotate 0 0 S8 stroke grestore} bind def
/D9 {gsave translate 45 rotate 0 0 S9 stroke grestore} bind def
/D10 {gsave translate 45 rotate 0 0 S10 stroke grestore} bind def
/D11 {gsave translate 45 rotate 0 0 S11 stroke grestore} bind def
/D12 {gsave translate 45 rotate 0 0 S12 stroke grestore} bind def
/D13 {gsave translate 45 rotate 0 0 S13 stroke grestore} bind def
/D14 {gsave translate 45 rotate 0 0 S14 stroke grestore} bind def
/D15 {gsave translate 45 rotate 0 0 S15 stroke grestore} bind def
/DiaE {stroke [] 0 setdash vpt add M
  hpt neg vpt neg V hpt vpt neg V
  hpt vpt V hpt neg vpt V closepath stroke} def
/BoxE {stroke [] 0 setdash exch hpt sub exch vpt add M
  0 vpt2 neg V hpt2 0 V 0 vpt2 V
  hpt2 neg 0 V closepath stroke} def
/TriUE {stroke [] 0 setdash vpt 1.12 mul add M
  hpt neg vpt -1.62 mul V
  hpt 2 mul 0 V
  hpt neg vpt 1.62 mul V closepath stroke} def
/TriDE {stroke [] 0 setdash vpt 1.12 mul sub M
  hpt neg vpt 1.62 mul V
  hpt 2 mul 0 V
  hpt neg vpt -1.62 mul V closepath stroke} def
/PentE {stroke [] 0 setdash gsave
  translate 0 hpt M 4 {72 rotate 0 hpt L} repeat
  closepath stroke grestore} def
/CircE {stroke [] 0 setdash 
  hpt 0 360 arc stroke} def
/Opaque {gsave closepath 1 setgray fill grestore 0 setgray closepath} def
/DiaW {stroke [] 0 setdash vpt add M
  hpt neg vpt neg V hpt vpt neg V
  hpt vpt V hpt neg vpt V Opaque stroke} def
/BoxW {stroke [] 0 setdash exch hpt sub exch vpt add M
  0 vpt2 neg V hpt2 0 V 0 vpt2 V
  hpt2 neg 0 V Opaque stroke} def
/TriUW {stroke [] 0 setdash vpt 1.12 mul add M
  hpt neg vpt -1.62 mul V
  hpt 2 mul 0 V
  hpt neg vpt 1.62 mul V Opaque stroke} def
/TriDW {stroke [] 0 setdash vpt 1.12 mul sub M
  hpt neg vpt 1.62 mul V
  hpt 2 mul 0 V
  hpt neg vpt -1.62 mul V Opaque stroke} def
/PentW {stroke [] 0 setdash gsave
  translate 0 hpt M 4 {72 rotate 0 hpt L} repeat
  Opaque stroke grestore} def
/CircW {stroke [] 0 setdash 
  hpt 0 360 arc Opaque stroke} def
/BoxFill {gsave Rec 1 setgray fill grestore} def
/Density {
  /Fillden exch def
  currentrgbcolor
  /ColB exch def /ColG exch def /ColR exch def
  /ColR ColR Fillden mul Fillden sub 1 add def
  /ColG ColG Fillden mul Fillden sub 1 add def
  /ColB ColB Fillden mul Fillden sub 1 add def
  ColR ColG ColB setrgbcolor} def
/BoxColFill {gsave Rec PolyFill} def
/PolyFill {gsave Density fill grestore grestore} def
/h {rlineto rlineto rlineto gsave closepath fill grestore} bind def
%
% PostScript Level 1 Pattern Fill routine for rectangles
% Usage: x y w h s a XX PatternFill
%	x,y = lower left corner of box to be filled
%	w,h = width and height of box
%	  a = angle in degrees between lines and x-axis
%	 XX = 0/1 for no/yes cross-hatch
%
/PatternFill {gsave /PFa [ 9 2 roll ] def
  PFa 0 get PFa 2 get 2 div add PFa 1 get PFa 3 get 2 div add translate
  PFa 2 get -2 div PFa 3 get -2 div PFa 2 get PFa 3 get Rec
  TransparentPatterns {} {gsave 1 setgray fill grestore} ifelse
  clip
  currentlinewidth 0.5 mul setlinewidth
  /PFs PFa 2 get dup mul PFa 3 get dup mul add sqrt def
  0 0 M PFa 5 get rotate PFs -2 div dup translate
  0 1 PFs PFa 4 get div 1 add floor cvi
	{PFa 4 get mul 0 M 0 PFs V} for
  0 PFa 6 get ne {
	0 1 PFs PFa 4 get div 1 add floor cvi
	{PFa 4 get mul 0 2 1 roll M PFs 0 V} for
 } if
  stroke grestore} def
%
/languagelevel where
 {pop languagelevel} {1} ifelse
 2 lt
	{/InterpretLevel1 true def}
	{/InterpretLevel1 Level1 def}
 ifelse
%
% PostScript level 2 pattern fill definitions
%
/Level2PatternFill {
/Tile8x8 {/PaintType 2 /PatternType 1 /TilingType 1 /BBox [0 0 8 8] /XStep 8 /YStep 8}
	bind def
/KeepColor {currentrgbcolor [/Pattern /DeviceRGB] setcolorspace} bind def
<< Tile8x8
 /PaintProc {0.5 setlinewidth pop 0 0 M 8 8 L 0 8 M 8 0 L stroke} 
>> matrix makepattern
/Pat1 exch def
<< Tile8x8
 /PaintProc {0.5 setlinewidth pop 0 0 M 8 8 L 0 8 M 8 0 L stroke
	0 4 M 4 8 L 8 4 L 4 0 L 0 4 L stroke}
>> matrix makepattern
/Pat2 exch def
<< Tile8x8
 /PaintProc {0.5 setlinewidth pop 0 0 M 0 8 L
	8 8 L 8 0 L 0 0 L fill}
>> matrix makepattern
/Pat3 exch def
<< Tile8x8
 /PaintProc {0.5 setlinewidth pop -4 8 M 8 -4 L
	0 12 M 12 0 L stroke}
>> matrix makepattern
/Pat4 exch def
<< Tile8x8
 /PaintProc {0.5 setlinewidth pop -4 0 M 8 12 L
	0 -4 M 12 8 L stroke}
>> matrix makepattern
/Pat5 exch def
<< Tile8x8
 /PaintProc {0.5 setlinewidth pop -2 8 M 4 -4 L
	0 12 M 8 -4 L 4 12 M 10 0 L stroke}
>> matrix makepattern
/Pat6 exch def
<< Tile8x8
 /PaintProc {0.5 setlinewidth pop -2 0 M 4 12 L
	0 -4 M 8 12 L 4 -4 M 10 8 L stroke}
>> matrix makepattern
/Pat7 exch def
<< Tile8x8
 /PaintProc {0.5 setlinewidth pop 8 -2 M -4 4 L
	12 0 M -4 8 L 12 4 M 0 10 L stroke}
>> matrix makepattern
/Pat8 exch def
<< Tile8x8
 /PaintProc {0.5 setlinewidth pop 0 -2 M 12 4 L
	-4 0 M 12 8 L -4 4 M 8 10 L stroke}
>> matrix makepattern
/Pat9 exch def
/Pattern1 {PatternBgnd KeepColor Pat1 setpattern} bind def
/Pattern2 {PatternBgnd KeepColor Pat2 setpattern} bind def
/Pattern3 {PatternBgnd KeepColor Pat3 setpattern} bind def
/Pattern4 {PatternBgnd KeepColor Landscape {Pat5} {Pat4} ifelse setpattern} bind def
/Pattern5 {PatternBgnd KeepColor Landscape {Pat4} {Pat5} ifelse setpattern} bind def
/Pattern6 {PatternBgnd KeepColor Landscape {Pat9} {Pat6} ifelse setpattern} bind def
/Pattern7 {PatternBgnd KeepColor Landscape {Pat8} {Pat7} ifelse setpattern} bind def
} def
%
%
%End of PostScript Level 2 code
%
/PatternBgnd {
  TransparentPatterns {} {gsave 1 setgray fill grestore} ifelse
} def
%
% Substitute for Level 2 pattern fill codes with
% grayscale if Level 2 support is not selected.
%
/Level1PatternFill {
/Pattern1 {0.250 Density} bind def
/Pattern2 {0.500 Density} bind def
/Pattern3 {0.750 Density} bind def
/Pattern4 {0.125 Density} bind def
/Pattern5 {0.375 Density} bind def
/Pattern6 {0.625 Density} bind def
/Pattern7 {0.875 Density} bind def
} def
%
% Now test for support of Level 2 code
%
Level1 {Level1PatternFill} {Level2PatternFill} ifelse
%
/Symbol-Oblique /Symbol findfont [1 0 .167 1 0 0] makefont
dup length dict begin {1 index /FID eq {pop pop} {def} ifelse} forall
currentdict end definefont pop
/MFshow {
   { dup 5 get 3 ge
     { 5 get 3 eq {gsave} {grestore} ifelse }
     {dup dup 0 get findfont exch 1 get scalefont setfont
     [ currentpoint ] exch dup 2 get 0 exch R dup 5 get 2 ne {dup dup 6
     get exch 4 get {Gshow} {stringwidth pop 0 R} ifelse }if dup 5 get 0 eq
     {dup 3 get {2 get neg 0 exch R pop} {pop aload pop M} ifelse} {dup 5
     get 1 eq {dup 2 get exch dup 3 get exch 6 get stringwidth pop -2 div
     dup 0 R} {dup 6 get stringwidth pop -2 div 0 R 6 get
     show 2 index {aload pop M neg 3 -1 roll neg R pop pop} {pop pop pop
     pop aload pop M} ifelse }ifelse }ifelse }
     ifelse }
   forall} def
/Gswidth {dup type /stringtype eq {stringwidth} {pop (n) stringwidth} ifelse} def
/MFwidth {0 exch { dup 5 get 3 ge { 5 get 3 eq { 0 } { pop } ifelse }
 {dup 3 get{dup dup 0 get findfont exch 1 get scalefont setfont
     6 get Gswidth pop add} {pop} ifelse} ifelse} forall} def
/MLshow { currentpoint stroke M
  0 exch R
  Blacktext {gsave 0 setgray MFshow grestore} {MFshow} ifelse } bind def
/MRshow { currentpoint stroke M
  exch dup MFwidth neg 3 -1 roll R
  Blacktext {gsave 0 setgray MFshow grestore} {MFshow} ifelse } bind def
/MCshow { currentpoint stroke M
  exch dup MFwidth -2 div 3 -1 roll R
  Blacktext {gsave 0 setgray MFshow grestore} {MFshow} ifelse } bind def
/XYsave    { [( ) 1 2 true false 3 ()] } bind def
/XYrestore { [( ) 1 2 true false 4 ()] } bind def
Level1 SuppressPDFMark or 
{} {
/SDict 10 dict def
systemdict /pdfmark known not {
  userdict /pdfmark systemdict /cleartomark get put
} if
SDict begin [
  /Title (boundary.eps)
  /Subject (gnuplot plot)
  /Creator (gnuplot 4.6 patchlevel 5)
  /Author (mls)
%  /Producer (gnuplot)
%  /Keywords ()
  /CreationDate (Tue May 19 19:15:15 2015)
  /DOCINFO pdfmark
end
} ifelse
end
%%EndProlog
%%Page: 1 1
gnudict begin
gsave
doclip
50 50 translate
0.050 0.050 scale
0 setgray
newpath
(Times-Roman) findfont 350 scalefont setfont
BackgroundColor 0 lt 3 1 roll 0 lt exch 0 lt or or not {BackgroundColor C 1.000 0 0 7200.00 5040.00 BoxColFill} if
1.000 UL
LTb
1295 1120 M
63 0 V
5211 0 R
-63 0 V
stroke
1085 1120 M
[ [(Times-Roman) 350.0 0.0 true true 0 ( 0)]
] -116.7 MRshow
1.000 UL
LTb
1295 1995 M
63 0 V
5211 0 R
-63 0 V
stroke
1085 1995 M
[ [(Times-Roman) 350.0 0.0 true true 0 ( 1)]
] -116.7 MRshow
1.000 UL
LTb
1295 2870 M
63 0 V
5211 0 R
-63 0 V
stroke
1085 2870 M
[ [(Times-Roman) 350.0 0.0 true true 0 ( 2)]
] -116.7 MRshow
1.000 UL
LTb
1295 3744 M
63 0 V
5211 0 R
-63 0 V
stroke
1085 3744 M
[ [(Times-Roman) 350.0 0.0 true true 0 ( 3)]
] -116.7 MRshow
1.000 UL
LTb
1295 4619 M
63 0 V
5211 0 R
-63 0 V
stroke
1085 4619 M
[ [(Times-Roman) 350.0 0.0 true true 0 ( 4)]
] -116.7 MRshow
1.000 UL
LTb
1295 1120 M
0 63 V
0 3436 R
0 -63 V
stroke
1295 770 M
[ [(Times-Roman) 350.0 0.0 true true 0 ( 0.2)]
] -116.7 MCshow
1.000 UL
LTb
2350 1120 M
0 63 V
0 3436 R
0 -63 V
stroke
2350 770 M
[ [(Times-Roman) 350.0 0.0 true true 0 ( 0.3)]
] -116.7 MCshow
1.000 UL
LTb
3405 1120 M
0 63 V
0 3436 R
0 -63 V
stroke
3405 770 M
[ [(Times-Roman) 350.0 0.0 true true 0 ( 0.4)]
] -116.7 MCshow
1.000 UL
LTb
4459 1120 M
0 63 V
0 3436 R
0 -63 V
stroke
4459 770 M
[ [(Times-Roman) 350.0 0.0 true true 0 ( 0.5)]
] -116.7 MCshow
1.000 UL
LTb
5514 1120 M
0 63 V
0 3436 R
0 -63 V
stroke
5514 770 M
[ [(Times-Roman) 350.0 0.0 true true 0 ( 0.6)]
] -116.7 MCshow
1.000 UL
LTb
6569 1120 M
0 63 V
0 3436 R
0 -63 V
stroke
6569 770 M
[ [(Times-Roman) 350.0 0.0 true true 0 ( 0.7)]
] -116.7 MCshow
1.000 UL
LTb
1.000 UL
LTb
1295 4619 N
0 -3499 V
5274 0 V
0 3499 V
-5274 0 V
Z stroke
LCb setrgbcolor
280 2869 M
currentpoint gsave translate -270 rotate 0 0 moveto
[ [(Symbol) 350.0 0.0 true true 1 (w)]
[(Times-Roman) 350.0 175.0 false true 2 (~)]
[(Times-Roman) 350.0 0.0 true true 0 ([MHz])]
] -175.0 MCshow
grestore
LTb
LCb setrgbcolor
3932 245 M
[ [(Times-Roman) 350.0 0.0 true true 0 (P)]
] -116.7 MCshow
LTb
1.000 UP
1.000 UL
LTb
1.00 0.00 0.00 C 1295 2870 M
5274 0 V
stroke
LTb
% Begin plot #1
7.000 UL
LT0
1506 1290 M
0 -3 V
0 -3 V
0 -2 V
0 -2 V
0 -2 V
0 -1 V
11 -2 V
0 -1 V
0 -1 V
0 -1 V
0 -1 V
0 -1 V
0 -1 V
0 -1 V
10 -1 V
0 -1 V
0 -1 V
0 -1 V
0 -1 V
0 -1 V
0 -1 V
11 -1 V
0 -1 V
0 -1 V
0 -1 V
0 -1 V
10 -1 V
0 -1 V
0 -1 V
0 -1 V
0 -1 V
11 0 V
0 -1 V
0 -1 V
0 -1 V
0 -1 V
10 -1 V
0 -1 V
0 -1 V
11 -1 V
0 -1 V
0 -1 V
0 -1 V
10 0 V
0 -1 V
0 -1 V
11 -1 V
0 -1 V
0 -1 V
10 0 V
0 -1 V
0 -1 V
0 -1 V
11 0 V
0 -1 V
0 -1 V
11 0 V
0 -1 V
0 -1 V
10 0 V
0 -1 V
0 -1 V
11 0 V
0 -1 V
0 -1 V
10 -1 V
0 -1 V
11 0 V
0 -1 V
0 -1 V
10 0 V
0 -1 V
0 -1 V
11 0 V
0 -1 V
10 0 V
0 -1 V
0 -1 V
11 0 V
0 -1 V
10 0 V
0 -1 V
0 -1 V
11 0 V
0 -1 V
11 0 V
0 -1 V
10 -1 V
0 -1 V
11 0 V
0 -1 V
10 0 V
0 -1 V
11 0 V
0 -1 V
10 0 V
0 -1 V
11 -1 V
0 -1 V
10 0 V
0 -1 V
11 0 V
0 -1 V
10 0 V
stroke 1843 1200 M
0 -1 V
11 0 V
0 -1 V
11 0 V
0 -1 V
10 0 V
0 -1 V
11 0 V
0 -1 V
10 0 V
11 0 V
0 -1 V
10 0 V
0 -1 V
11 0 V
0 -1 V
10 0 V
0 -1 V
11 0 V
0 -1 V
11 0 V
10 0 V
0 -1 V
11 0 V
0 -1 V
10 0 V
0 -1 V
11 0 V
10 0 V
0 -1 V
11 0 V
0 -1 V
10 0 V
11 0 V
0 -1 V
10 0 V
0 -1 V
11 0 V
11 0 V
0 -1 V
10 0 V
0 -1 V
11 0 V
10 0 V
0 -1 V
11 0 V
10 0 V
0 -1 V
11 0 V
10 -1 V
11 0 V
0 -1 V
10 0 V
11 0 V
0 -1 V
11 0 V
10 0 V
0 -1 V
11 0 V
10 0 V
0 -1 V
11 0 V
10 0 V
0 -1 V
11 0 V
10 0 V
0 -1 V
11 0 V
11 0 V
10 -1 V
11 0 V
10 0 V
0 -1 V
11 0 V
10 0 V
0 -1 V
11 0 V
10 0 V
11 0 V
0 -1 V
10 0 V
11 0 V
0 -1 V
11 0 V
10 0 V
11 0 V
0 -1 V
10 0 V
11 0 V
0 -1 V
10 0 V
11 0 V
10 0 V
0 -1 V
11 0 V
10 0 V
11 0 V
0 -1 V
11 0 V
10 0 V
11 0 V
0 -1 V
10 0 V
11 0 V
stroke 2561 1162 M
10 0 V
0 -1 V
11 0 V
10 0 V
11 0 V
0 -1 V
11 0 V
10 0 V
11 0 V
10 0 V
0 -1 V
11 0 V
10 0 V
11 0 V
0 -1 V
10 0 V
11 0 V
10 0 V
11 0 V
0 -1 V
11 0 V
10 0 V
11 0 V
10 0 V
0 -1 V
11 0 V
10 0 V
11 0 V
0 -1 V
10 0 V
11 0 V
10 0 V
11 0 V
11 0 V
0 -1 V
10 0 V
11 0 V
10 0 V
0 -1 V
11 0 V
10 0 V
11 0 V
10 0 V
11 0 V
0 -1 V
10 0 V
11 0 V
11 0 V
10 0 V
0 -1 V
11 0 V
10 0 V
11 0 V
10 0 V
11 0 V
10 0 V
0 -1 V
11 0 V
11 0 V
10 0 V
11 0 V
10 0 V
0 -1 V
11 0 V
10 0 V
11 0 V
10 0 V
11 0 V
0 -1 V
10 0 V
11 0 V
11 0 V
10 0 V
11 0 V
10 0 V
0 -1 V
11 0 V
10 0 V
11 0 V
10 0 V
11 0 V
0 -1 V
10 0 V
11 0 V
11 0 V
10 0 V
11 0 V
10 0 V
11 0 V
0 -1 V
10 0 V
11 0 V
10 0 V
11 0 V
11 0 V
10 0 V
0 -1 V
11 0 V
10 0 V
11 0 V
10 0 V
11 0 V
10 0 V
11 0 V
stroke 3468 1144 M
10 0 V
0 -1 V
11 0 V
11 0 V
10 0 V
11 0 V
10 0 V
11 0 V
10 0 V
11 0 V
0 -1 V
10 0 V
11 0 V
10 0 V
11 0 V
11 0 V
10 0 V
11 0 V
0 -1 V
10 0 V
11 0 V
10 0 V
11 0 V
10 0 V
11 0 V
10 0 V
11 0 V
11 0 V
0 -1 V
10 0 V
11 0 V
10 0 V
11 0 V
10 0 V
11 0 V
10 0 V
11 0 V
0 -1 V
11 0 V
10 0 V
11 0 V
10 0 V
11 0 V
10 0 V
11 0 V
10 0 V
11 0 V
10 0 V
11 0 V
0 -1 V
11 0 V
10 0 V
11 0 V
10 0 V
11 0 V
10 0 V
11 0 V
10 0 V
11 0 V
0 -1 V
10 0 V
11 0 V
11 0 V
10 0 V
11 0 V
10 0 V
11 0 V
10 0 V
11 0 V
10 0 V
11 0 V
11 0 V
0 -1 V
10 0 V
11 0 V
10 0 V
11 0 V
10 0 V
11 0 V
10 0 V
11 0 V
10 0 V
11 0 V
11 0 V
10 0 V
11 0 V
0 -1 V
10 0 V
11 0 V
10 0 V
11 0 V
10 0 V
11 0 V
10 0 V
11 0 V
11 0 V
10 0 V
11 0 V
10 0 V
0 -1 V
11 0 V
10 0 V
11 0 V
10 0 V
stroke 4459 1134 M
11 0 V
10 0 V
11 0 V
11 0 V
10 0 V
11 0 V
10 0 V
11 0 V
10 0 V
11 0 V
10 0 V
11 0 V
0 -1 V
11 0 V
10 0 V
11 0 V
10 0 V
11 0 V
10 0 V
11 0 V
10 0 V
11 0 V
10 0 V
11 0 V
11 0 V
10 0 V
11 0 V
0 -1 V
10 0 V
11 0 V
10 0 V
11 0 V
10 0 V
11 0 V
10 0 V
11 0 V
11 0 V
10 0 V
11 0 V
10 0 V
11 0 V
10 0 V
11 0 V
10 0 V
11 0 V
11 0 V
10 0 V
0 -1 V
11 0 V
10 0 V
11 0 V
10 0 V
11 0 V
10 0 V
11 0 V
10 0 V
11 0 V
11 0 V
10 0 V
11 0 V
10 0 V
11 0 V
10 0 V
11 0 V
10 0 V
11 0 V
0 -1 V
10 0 V
11 0 V
11 0 V
10 0 V
11 0 V
10 0 V
11 0 V
10 0 V
11 0 V
10 0 V
11 0 V
11 0 V
10 0 V
11 0 V
10 0 V
11 0 V
10 0 V
11 0 V
10 0 V
11 0 V
10 0 V
11 0 V
11 0 V
10 0 V
0 -1 V
11 0 V
10 0 V
11 0 V
10 0 V
11 0 V
10 0 V
11 0 V
10 0 V
11 0 V
11 0 V
10 0 V
11 0 V
stroke 5504 1129 M
10 0 V
11 0 V
10 0 V
11 0 V
10 0 V
11 0 V
10 0 V
11 0 V
11 0 V
10 0 V
11 0 V
10 0 V
11 0 V
10 0 V
11 0 V
10 0 V
0 -1 V
11 0 V
11 0 V
10 0 V
11 0 V
10 0 V
11 0 V
10 0 V
11 0 V
10 0 V
11 0 V
10 0 V
11 0 V
11 0 V
10 0 V
11 0 V
10 0 V
11 0 V
10 0 V
11 0 V
10 0 V
11 0 V
10 0 V
11 0 V
11 0 V
10 0 V
11 0 V
0 -1 V
10 0 V
11 0 V
10 0 V
11 0 V
10 0 V
11 0 V
11 0 V
10 0 V
11 0 V
10 0 V
11 0 V
10 0 V
11 0 V
10 0 V
11 0 V
10 0 V
11 0 V
11 0 V
10 0 V
11 0 V
10 0 V
11 0 V
10 0 V
11 0 V
10 0 V
11 0 V
10 0 V
11 0 V
11 0 V
10 0 V
11 0 V
10 0 V
11 0 V
10 0 V
11 0 V
10 0 V
11 0 V
10 0 V
11 0 V
0 -1 V
11 0 V
10 0 V
11 0 V
10 0 V
11 0 V
10 0 V
11 0 V
10 0 V
11 0 V
11 0 V
10 0 V
11 0 V
10 0 V
11 0 V
10 0 V
11 0 V
10 0 V
11 0 V
10 0 V
11 0 V
stroke 6569 1126 M
% End plot #1
% Begin plot #2
1506 1304 M
0 4 V
0 3 V
0 3 V
0 2 V
0 2 V
0 2 V
11 2 V
0 2 V
0 1 V
0 2 V
0 1 V
0 2 V
0 1 V
0 1 V
10 2 V
0 1 V
0 1 V
0 1 V
0 1 V
0 2 V
0 1 V
0 1 V
0 1 V
11 1 V
0 1 V
0 1 V
0 1 V
0 1 V
0 1 V
0 1 V
0 1 V
10 1 V
0 1 V
0 1 V
0 1 V
0 1 V
0 1 V
0 1 V
0 1 V
11 1 V
0 1 V
0 1 V
0 1 V
0 1 V
0 1 V
0 1 V
0 1 V
10 1 V
0 1 V
0 1 V
0 1 V
0 1 V
0 1 V
0 1 V
11 1 V
0 1 V
0 1 V
0 1 V
0 1 V
0 1 V
0 1 V
10 1 V
0 1 V
0 1 V
0 1 V
0 1 V
0 1 V
11 0 V
0 1 V
0 1 V
0 1 V
0 1 V
0 1 V
0 1 V
10 1 V
0 1 V
0 1 V
0 1 V
0 1 V
0 1 V
0 1 V
11 0 V
0 1 V
0 1 V
0 1 V
0 1 V
0 1 V
11 1 V
0 1 V
0 1 V
0 1 V
0 1 V
0 1 V
10 1 V
0 1 V
0 1 V
0 1 V
0 1 V
0 1 V
11 0 V
0 1 V
0 1 V
0 1 V
stroke 1654 1420 M
0 1 V
0 1 V
10 1 V
0 1 V
0 1 V
0 1 V
0 1 V
11 1 V
0 1 V
0 1 V
0 1 V
0 1 V
0 1 V
10 1 V
0 1 V
0 1 V
0 1 V
0 1 V
0 1 V
11 1 V
0 1 V
0 1 V
0 1 V
0 1 V
10 1 V
0 1 V
0 1 V
0 1 V
0 1 V
0 1 V
11 0 V
0 1 V
0 1 V
0 1 V
0 1 V
10 1 V
0 1 V
0 1 V
0 1 V
0 1 V
0 1 V
11 0 V
0 1 V
0 1 V
0 1 V
0 1 V
0 1 V
11 0 V
0 1 V
0 1 V
0 1 V
0 1 V
0 1 V
10 1 V
0 1 V
0 1 V
0 1 V
0 1 V
11 1 V
0 1 V
0 1 V
0 1 V
0 1 V
10 1 V
0 1 V
0 1 V
0 1 V
0 1 V
0 1 V
11 0 V
0 1 V
0 1 V
0 1 V
0 1 V
10 1 V
0 1 V
0 1 V
0 1 V
0 1 V
11 1 V
0 1 V
0 1 V
0 1 V
0 1 V
10 1 V
0 1 V
0 1 V
0 1 V
0 1 V
0 1 V
11 0 V
0 1 V
0 1 V
0 1 V
0 1 V
0 1 V
10 0 V
0 1 V
0 1 V
0 1 V
0 1 V
11 1 V
0 1 V
0 1 V
stroke 1854 1518 M
0 1 V
0 1 V
0 1 V
11 0 V
0 1 V
0 1 V
0 1 V
0 1 V
10 1 V
0 1 V
0 1 V
0 1 V
0 1 V
11 1 V
0 1 V
0 1 V
0 1 V
0 1 V
0 1 V
10 0 V
0 1 V
0 1 V
0 1 V
0 1 V
0 1 V
11 0 V
0 1 V
0 1 V
0 1 V
0 1 V
0 1 V
10 0 V
0 1 V
0 1 V
0 1 V
0 1 V
11 1 V
0 1 V
0 1 V
0 1 V
0 1 V
0 1 V
10 0 V
0 1 V
0 1 V
0 1 V
0 1 V
11 1 V
0 1 V
0 1 V
0 1 V
0 1 V
11 1 V
0 1 V
0 1 V
0 1 V
0 1 V
0 1 V
10 0 V
0 1 V
0 1 V
0 1 V
0 1 V
11 1 V
0 1 V
0 1 V
0 1 V
0 1 V
0 1 V
10 0 V
0 1 V
0 1 V
0 1 V
0 1 V
11 1 V
0 1 V
0 1 V
0 1 V
0 1 V
10 1 V
0 1 V
0 1 V
0 1 V
0 1 V
11 1 V
0 1 V
0 1 V
0 1 V
0 1 V
10 1 V
0 1 V
0 1 V
0 1 V
0 1 V
0 1 V
11 0 V
0 1 V
0 1 V
0 1 V
0 1 V
10 1 V
0 1 V
0 1 V
0 1 V
stroke 2054 1614 M
0 1 V
0 1 V
11 0 V
0 1 V
0 1 V
0 1 V
0 1 V
11 1 V
0 1 V
0 1 V
0 1 V
0 1 V
0 1 V
10 0 V
0 1 V
0 1 V
0 1 V
0 1 V
0 1 V
11 1 V
0 1 V
0 1 V
0 1 V
0 1 V
10 0 V
0 1 V
0 1 V
0 1 V
0 1 V
0 1 V
11 1 V
0 1 V
0 1 V
0 1 V
0 1 V
10 0 V
0 1 V
0 1 V
0 1 V
0 1 V
0 1 V
11 1 V
0 1 V
0 1 V
0 1 V
0 1 V
10 0 V
0 1 V
0 1 V
0 1 V
0 1 V
0 1 V
11 1 V
0 1 V
0 1 V
0 1 V
0 1 V
0 1 V
10 0 V
0 1 V
0 1 V
0 1 V
0 1 V
0 1 V
11 0 V
0 1 V
0 1 V
0 1 V
0 1 V
0 1 V
11 0 V
0 1 V
0 1 V
0 1 V
0 1 V
0 1 V
10 0 V
0 1 V
0 1 V
0 1 V
0 1 V
0 1 V
11 1 V
0 1 V
0 1 V
0 1 V
0 1 V
10 1 V
0 1 V
0 1 V
0 1 V
0 1 V
0 1 V
11 0 V
0 1 V
0 1 V
0 1 V
0 1 V
0 1 V
10 1 V
0 1 V
0 1 V
0 1 V
0 1 V
stroke 2244 1708 M
11 0 V
0 1 V
0 1 V
0 1 V
0 1 V
0 1 V
10 1 V
0 1 V
0 1 V
0 1 V
0 1 V
11 1 V
0 1 V
0 1 V
0 1 V
0 1 V
0 1 V
11 0 V
0 1 V
0 1 V
0 1 V
0 1 V
0 1 V
10 0 V
0 1 V
0 1 V
0 1 V
0 1 V
0 1 V
11 1 V
0 1 V
0 1 V
0 1 V
0 1 V
0 1 V
10 1 V
0 1 V
0 1 V
0 1 V
0 1 V
11 1 V
0 1 V
0 1 V
0 1 V
0 1 V
0 1 V
10 0 V
0 1 V
0 1 V
0 1 V
0 1 V
0 1 V
11 0 V
0 1 V
0 1 V
0 1 V
0 1 V
0 1 V
10 1 V
0 1 V
0 1 V
0 1 V
0 1 V
0 1 V
11 1 V
0 1 V
0 1 V
0 1 V
0 1 V
10 1 V
0 1 V
0 1 V
0 1 V
0 1 V
0 1 V
11 0 V
0 1 V
0 1 V
0 1 V
0 1 V
0 1 V
11 0 V
0 1 V
0 1 V
0 1 V
0 1 V
0 1 V
0 1 V
10 0 V
0 1 V
0 1 V
0 1 V
0 1 V
0 1 V
11 0 V
0 1 V
0 1 V
0 1 V
0 1 V
0 1 V
10 1 V
0 1 V
0 1 V
0 1 V
stroke 2434 1803 M
0 1 V
0 1 V
11 1 V
0 1 V
0 1 V
0 1 V
0 1 V
10 1 V
0 1 V
0 1 V
0 1 V
0 1 V
0 1 V
11 1 V
0 1 V
0 1 V
0 1 V
0 1 V
0 1 V
10 0 V
0 1 V
0 1 V
0 1 V
0 1 V
0 1 V
11 1 V
0 1 V
0 1 V
0 1 V
0 1 V
0 1 V
10 0 V
0 1 V
0 1 V
0 1 V
0 1 V
0 1 V
0 1 V
11 0 V
0 1 V
0 1 V
0 1 V
0 1 V
0 1 V
0 1 V
11 0 V
0 1 V
0 1 V
0 1 V
0 1 V
0 1 V
10 0 V
0 1 V
0 1 V
0 1 V
0 1 V
0 1 V
0 1 V
11 1 V
0 1 V
0 1 V
0 1 V
0 1 V
10 1 V
0 1 V
0 1 V
0 1 V
0 1 V
0 1 V
11 1 V
0 1 V
0 1 V
0 1 V
0 1 V
0 1 V
10 0 V
0 1 V
0 1 V
0 1 V
0 1 V
0 1 V
0 1 V
11 0 V
0 1 V
0 1 V
0 1 V
0 1 V
0 1 V
0 1 V
10 0 V
0 1 V
0 1 V
0 1 V
0 1 V
0 1 V
11 1 V
0 1 V
0 1 V
0 1 V
0 1 V
0 1 V
11 1 V
0 1 V
0 1 V
stroke 2614 1899 M
0 1 V
0 1 V
0 1 V
10 0 V
0 1 V
0 1 V
0 1 V
0 1 V
0 1 V
0 1 V
11 1 V
0 1 V
0 1 V
0 1 V
0 1 V
0 1 V
10 1 V
0 1 V
0 1 V
0 1 V
0 1 V
0 1 V
11 0 V
0 1 V
0 1 V
0 1 V
0 1 V
0 1 V
0 1 V
10 1 V
0 1 V
0 1 V
0 1 V
0 1 V
11 1 V
0 1 V
0 1 V
0 1 V
0 1 V
0 1 V
10 1 V
0 1 V
0 1 V
0 1 V
0 1 V
0 1 V
11 1 V
0 1 V
0 1 V
0 1 V
0 1 V
0 1 V
10 1 V
0 1 V
0 1 V
0 1 V
0 1 V
0 1 V
0 1 V
11 0 V
0 1 V
0 1 V
0 1 V
0 1 V
0 1 V
0 1 V
11 0 V
0 1 V
0 1 V
0 1 V
0 1 V
0 1 V
0 1 V
10 1 V
0 1 V
0 1 V
0 1 V
0 1 V
0 1 V
11 0 V
0 1 V
0 1 V
0 1 V
0 1 V
0 1 V
0 1 V
10 1 V
0 1 V
0 1 V
0 1 V
0 1 V
0 1 V
11 0 V
0 1 V
0 1 V
0 1 V
0 1 V
0 1 V
0 1 V
10 1 V
0 1 V
0 1 V
0 1 V
0 1 V
stroke 2782 1997 M
0 1 V
0 1 V
11 0 V
0 1 V
0 1 V
0 1 V
0 1 V
0 1 V
10 1 V
0 1 V
0 1 V
0 1 V
0 1 V
0 1 V
0 1 V
11 1 V
0 1 V
0 1 V
0 1 V
0 1 V
0 1 V
10 0 V
0 1 V
0 1 V
0 1 V
0 1 V
0 1 V
0 1 V
11 1 V
0 1 V
0 1 V
0 1 V
0 1 V
0 1 V
11 1 V
0 1 V
0 1 V
0 1 V
0 1 V
0 1 V
0 1 V
10 1 V
0 1 V
0 1 V
0 1 V
0 1 V
0 1 V
0 1 V
11 0 V
0 1 V
0 1 V
0 1 V
0 1 V
0 1 V
0 1 V
10 0 V
0 1 V
0 1 V
0 1 V
0 1 V
0 1 V
0 1 V
11 1 V
0 1 V
0 1 V
0 1 V
0 1 V
0 1 V
10 1 V
0 1 V
0 1 V
0 1 V
0 1 V
0 1 V
0 1 V
11 1 V
0 1 V
0 1 V
0 1 V
0 1 V
0 1 V
0 1 V
10 0 V
0 1 V
0 1 V
0 1 V
0 1 V
0 1 V
0 1 V
11 1 V
0 1 V
0 1 V
0 1 V
0 1 V
0 1 V
10 1 V
0 1 V
0 1 V
0 1 V
0 1 V
0 1 V
0 1 V
11 0 V
0 1 V
stroke 2951 2095 M
0 1 V
0 1 V
0 1 V
0 1 V
0 1 V
0 1 V
11 0 V
0 1 V
0 1 V
0 1 V
0 1 V
0 1 V
0 1 V
10 0 V
0 1 V
0 1 V
0 1 V
0 1 V
0 1 V
0 1 V
11 1 V
0 1 V
0 1 V
0 1 V
0 1 V
0 1 V
0 1 V
10 1 V
0 1 V
0 1 V
0 1 V
0 1 V
0 1 V
0 1 V
11 0 V
0 1 V
0 1 V
0 1 V
0 1 V
0 1 V
0 1 V
0 1 V
10 0 V
0 1 V
0 1 V
0 1 V
0 1 V
0 1 V
0 1 V
11 1 V
0 1 V
0 1 V
0 1 V
0 1 V
0 1 V
0 1 V
10 1 V
0 1 V
0 1 V
0 1 V
0 1 V
0 1 V
11 1 V
0 1 V
0 1 V
0 1 V
0 1 V
0 1 V
0 1 V
11 1 V
0 1 V
0 1 V
0 1 V
0 1 V
0 1 V
0 1 V
0 1 V
10 0 V
0 1 V
0 1 V
0 1 V
0 1 V
0 1 V
0 1 V
11 1 V
0 1 V
0 1 V
0 1 V
0 1 V
0 1 V
0 1 V
10 1 V
0 1 V
0 1 V
0 1 V
0 1 V
0 1 V
11 1 V
0 1 V
0 1 V
0 1 V
0 1 V
0 1 V
0 1 V
stroke 3099 2194 M
0 1 V
10 1 V
0 1 V
0 1 V
0 1 V
0 1 V
0 1 V
11 1 V
0 1 V
0 1 V
0 1 V
0 1 V
0 1 V
0 1 V
10 1 V
0 1 V
0 1 V
0 1 V
0 1 V
0 1 V
0 1 V
0 1 V
11 0 V
0 1 V
0 1 V
0 1 V
0 1 V
0 1 V
0 1 V
10 1 V
0 1 V
0 1 V
0 1 V
0 1 V
0 1 V
0 1 V
0 1 V
11 0 V
0 1 V
0 1 V
0 1 V
0 1 V
0 1 V
0 1 V
11 1 V
0 1 V
0 1 V
0 1 V
0 1 V
0 1 V
0 1 V
0 1 V
10 0 V
0 1 V
0 1 V
0 1 V
0 1 V
0 1 V
0 1 V
0 1 V
11 1 V
0 1 V
0 1 V
0 1 V
0 1 V
0 1 V
0 1 V
10 0 V
0 1 V
0 1 V
0 1 V
0 1 V
0 1 V
0 1 V
0 1 V
11 1 V
0 1 V
0 1 V
0 1 V
0 1 V
0 1 V
0 1 V
10 1 V
0 1 V
0 1 V
0 1 V
0 1 V
0 1 V
0 1 V
11 1 V
0 1 V
0 1 V
0 1 V
0 1 V
0 1 V
0 1 V
10 1 V
0 1 V
0 1 V
0 1 V
0 1 V
0 1 V
0 1 V
0 1 V
stroke 3246 2294 M
11 1 V
0 1 V
0 1 V
0 1 V
0 1 V
0 1 V
0 1 V
10 1 V
0 1 V
0 1 V
0 1 V
0 1 V
0 1 V
0 1 V
11 1 V
0 1 V
0 1 V
0 1 V
0 1 V
0 1 V
0 1 V
0 1 V
11 1 V
0 1 V
0 1 V
0 1 V
0 1 V
0 1 V
0 1 V
10 0 V
0 1 V
0 1 V
0 1 V
0 1 V
0 1 V
0 1 V
0 1 V
11 1 V
0 1 V
0 1 V
0 1 V
0 1 V
0 1 V
0 1 V
10 1 V
0 1 V
0 1 V
0 1 V
0 1 V
0 1 V
0 1 V
0 1 V
11 1 V
0 1 V
0 1 V
0 1 V
0 1 V
0 1 V
0 1 V
0 1 V
10 1 V
0 1 V
0 1 V
0 1 V
0 1 V
0 1 V
0 1 V
11 1 V
0 1 V
0 1 V
0 1 V
0 1 V
0 1 V
0 1 V
0 1 V
10 1 V
0 1 V
0 1 V
0 1 V
0 1 V
0 1 V
0 1 V
11 1 V
0 1 V
0 1 V
0 1 V
0 1 V
0 1 V
0 1 V
0 1 V
11 1 V
0 1 V
0 1 V
0 1 V
0 1 V
0 1 V
0 1 V
10 1 V
0 1 V
0 1 V
0 1 V
0 1 V
0 1 V
0 1 V
stroke 3394 2397 M
0 1 V
11 1 V
0 1 V
0 2 V
0 1 V
0 1 V
0 1 V
0 1 V
10 1 V
0 1 V
0 1 V
0 1 V
0 1 V
0 1 V
0 1 V
11 1 V
0 1 V
0 1 V
0 1 V
0 1 V
0 1 V
0 1 V
0 1 V
10 1 V
0 1 V
0 1 V
0 1 V
0 1 V
0 1 V
0 1 V
11 1 V
0 1 V
0 1 V
0 1 V
0 1 V
0 1 V
0 1 V
0 1 V
10 1 V
0 1 V
0 1 V
0 1 V
0 1 V
0 1 V
0 1 V
0 1 V
0 1 V
11 0 V
0 1 V
0 1 V
0 1 V
0 1 V
0 1 V
0 1 V
0 1 V
10 1 V
0 1 V
0 1 V
0 1 V
0 1 V
0 1 V
0 1 V
0 1 V
11 1 V
0 1 V
0 1 V
0 1 V
0 1 V
0 1 V
0 2 V
11 0 V
0 1 V
0 1 V
0 1 V
0 1 V
0 1 V
0 1 V
0 1 V
0 1 V
10 1 V
0 1 V
0 1 V
0 1 V
0 1 V
0 1 V
0 1 V
11 1 V
0 1 V
0 1 V
0 1 V
0 1 V
0 1 V
0 1 V
0 1 V
0 1 V
10 0 V
0 1 V
0 1 V
0 1 V
0 1 V
0 1 V
0 1 V
0 1 V
0 1 V
stroke 3531 2500 M
11 1 V
0 1 V
0 1 V
0 1 V
0 1 V
0 1 V
0 1 V
10 1 V
0 1 V
0 1 V
0 1 V
0 1 V
0 1 V
0 1 V
0 1 V
0 1 V
11 1 V
0 1 V
0 1 V
0 1 V
0 1 V
0 1 V
0 1 V
10 1 V
0 1 V
0 1 V
0 1 V
0 1 V
0 1 V
0 1 V
0 1 V
0 1 V
11 1 V
0 1 V
0 1 V
0 1 V
0 1 V
0 1 V
0 2 V
10 0 V
0 1 V
0 1 V
0 1 V
0 1 V
0 1 V
0 1 V
0 1 V
0 1 V
11 1 V
0 1 V
0 1 V
0 1 V
0 1 V
0 1 V
0 1 V
0 1 V
0 1 V
11 0 V
0 2 V
0 1 V
0 1 V
0 1 V
0 1 V
0 1 V
10 1 V
0 1 V
0 1 V
0 1 V
0 1 V
0 1 V
0 1 V
0 1 V
0 1 V
11 1 V
0 1 V
0 1 V
0 1 V
0 1 V
0 1 V
0 1 V
0 1 V
10 0 V
0 2 V
0 2 V
0 1 V
0 1 V
0 1 V
0 1 V
11 1 V
0 1 V
0 1 V
0 1 V
0 1 V
0 1 V
0 1 V
0 1 V
10 1 V
0 1 V
0 1 V
0 1 V
0 1 V
0 1 V
0 1 V
0 1 V
stroke 3668 2605 M
0 1 V
11 1 V
0 1 V
0 1 V
0 1 V
0 1 V
0 1 V
0 1 V
0 1 V
0 1 V
10 1 V
0 1 V
0 1 V
0 1 V
0 1 V
0 1 V
0 1 V
0 1 V
11 0 V
0 2 V
0 2 V
0 2 V
0 1 V
0 1 V
10 1 V
0 1 V
0 1 V
0 1 V
0 1 V
0 1 V
0 1 V
0 1 V
11 1 V
0 1 V
0 1 V
0 1 V
0 1 V
0 1 V
0 1 V
0 1 V
0 1 V
11 1 V
0 1 V
0 1 V
0 1 V
0 1 V
0 1 V
0 1 V
0 1 V
0 1 V
10 1 V
0 1 V
0 1 V
0 1 V
0 1 V
0 1 V
0 1 V
0 1 V
11 1 V
0 1 V
0 1 V
0 1 V
0 1 V
0 1 V
0 1 V
0 1 V
0 1 V
10 1 V
0 1 V
0 1 V
0 1 V
0 1 V
0 1 V
0 1 V
0 1 V
11 1 V
0 1 V
0 1 V
0 1 V
0 1 V
0 1 V
0 1 V
0 1 V
0 1 V
10 1 V
0 1 V
0 1 V
0 1 V
0 2 V
0 1 V
0 2 V
11 0 V
0 2 V
0 1 V
0 1 V
0 1 V
0 1 V
0 1 V
0 1 V
0 1 V
10 1 V
0 1 V
0 1 V
0 1 V
stroke 3805 2713 M
0 1 V
0 1 V
0 1 V
0 1 V
0 1 V
11 1 V
0 1 V
0 1 V
0 1 V
0 1 V
0 1 V
0 1 V
0 1 V
11 1 V
0 1 V
0 1 V
0 1 V
0 1 V
0 1 V
0 1 V
0 1 V
0 1 V
10 1 V
0 1 V
0 2 V
0 1 V
0 2 V
0 2 V
11 1 V
0 1 V
0 1 V
0 1 V
0 1 V
0 1 V
0 1 V
0 1 V
0 1 V
10 1 V
0 1 V
0 1 V
0 1 V
0 1 V
0 1 V
0 1 V
0 1 V
11 1 V
0 1 V
0 1 V
0 1 V
0 1 V
0 1 V
0 1 V
0 2 V
0 1 V
10 1 V
0 1 V
0 1 V
0 1 V
0 1 V
0 1 V
0 1 V
0 1 V
0 1 V
11 1 V
0 1 V
0 1 V
0 1 V
0 1 V
0 1 V
0 1 V
0 1 V
10 1 V
0 2 V
0 1 V
0 1 V
0 1 V
0 1 V
0 1 V
0 1 V
0 1 V
11 1 V
0 1 V
0 1 V
0 1 V
0 1 V
0 1 V
0 1 V
0 1 V
10 1 V
0 1 V
0 2 V
0 1 V
0 1 V
0 1 V
0 1 V
0 1 V
0 1 V
11 1 V
0 1 V
0 1 V
0 1 V
0 1 V
0 1 V
0 1 V
stroke 3932 2823 M
0 1 V
0 2 V
11 1 V
0 1 V
0 1 V
0 1 V
0 1 V
0 1 V
0 1 V
0 1 V
10 1 V
0 1 V
0 1 V
0 1 V
0 2 V
0 1 V
0 1 V
0 1 V
0 1 V
11 1 V
0 1 V
0 1 V
0 1 V
0 1 V
0 1 V
0 1 V
0 1 V
10 2 V
0 1 V
0 1 V
0 1 V
0 1 V
0 1 V
0 1 V
0 1 V
0 1 V
11 1 V
0 1 V
0 1 V
0 1 V
0 2 V
0 1 V
0 1 V
0 1 V
10 1 V
0 1 V
0 1 V
0 1 V
0 1 V
0 1 V
0 1 V
0 2 V
0 1 V
11 1 V
0 1 V
0 1 V
0 1 V
0 1 V
0 1 V
0 1 V
0 1 V
0 1 V
10 2 V
0 1 V
0 1 V
0 1 V
0 1 V
0 1 V
0 1 V
0 1 V
11 1 V
0 1 V
0 2 V
0 1 V
0 1 V
0 1 V
0 1 V
0 1 V
0 1 V
10 1 V
0 1 V
0 1 V
0 1 V
0 2 V
0 1 V
0 1 V
0 1 V
11 1 V
0 1 V
0 1 V
0 1 V
0 2 V
0 1 V
0 1 V
0 1 V
0 1 V
11 1 V
0 1 V
0 1 V
0 1 V
0 1 V
0 1 V
0 2 V
0 1 V
stroke 4059 2937 M
10 1 V
0 1 V
0 1 V
0 1 V
0 1 V
0 1 V
0 2 V
0 1 V
0 1 V
11 1 V
0 1 V
0 1 V
0 1 V
0 1 V
0 1 V
0 2 V
0 1 V
0 1 V
10 1 V
0 1 V
0 1 V
0 1 V
0 1 V
0 2 V
0 1 V
0 1 V
11 1 V
0 1 V
0 1 V
0 1 V
0 1 V
0 2 V
0 1 V
0 1 V
0 1 V
10 1 V
0 1 V
0 1 V
0 2 V
0 1 V
0 1 V
0 1 V
0 1 V
11 1 V
0 1 V
0 1 V
0 2 V
0 1 V
0 1 V
0 1 V
0 1 V
0 1 V
10 1 V
0 2 V
0 1 V
0 1 V
0 1 V
0 1 V
0 1 V
0 1 V
11 2 V
0 1 V
0 1 V
0 1 V
0 1 V
0 1 V
0 1 V
0 2 V
0 1 V
11 1 V
0 1 V
0 1 V
0 1 V
0 1 V
0 1 V
0 2 V
0 1 V
0 1 V
10 1 V
0 1 V
0 1 V
0 2 V
0 1 V
0 1 V
0 1 V
0 1 V
11 1 V
0 2 V
0 1 V
0 1 V
0 1 V
0 1 V
0 1 V
0 2 V
0 1 V
10 1 V
0 1 V
0 1 V
0 1 V
0 1 V
0 2 V
0 1 V
0 1 V
11 1 V
stroke 4196 3055 M
0 1 V
0 1 V
0 1 V
0 2 V
0 1 V
0 1 V
0 1 V
0 1 V
10 1 V
0 2 V
0 1 V
0 1 V
0 1 V
0 1 V
0 1 V
0 2 V
0 1 V
11 1 V
0 1 V
0 1 V
0 2 V
0 1 V
0 1 V
0 1 V
0 1 V
10 1 V
0 2 V
0 1 V
0 1 V
0 1 V
0 1 V
0 2 V
0 1 V
0 1 V
11 1 V
0 1 V
0 1 V
0 2 V
0 1 V
0 1 V
0 1 V
0 1 V
10 1 V
0 2 V
0 1 V
0 1 V
0 1 V
0 1 V
0 1 V
0 2 V
0 1 V
11 1 V
0 1 V
0 2 V
0 1 V
0 1 V
0 1 V
0 1 V
0 1 V
11 2 V
0 1 V
0 1 V
0 1 V
0 1 V
0 1 V
0 2 V
0 1 V
0 1 V
10 1 V
0 2 V
0 1 V
0 1 V
0 1 V
0 1 V
0 2 V
0 1 V
0 1 V
11 1 V
0 1 V
0 1 V
0 2 V
0 1 V
0 1 V
0 1 V
0 2 V
10 1 V
0 1 V
0 1 V
0 1 V
0 1 V
0 2 V
0 1 V
0 1 V
0 1 V
11 2 V
0 1 V
0 1 V
0 1 V
0 1 V
0 2 V
0 1 V
0 1 V
10 1 V
0 2 V
stroke 4322 3179 M
0 1 V
0 1 V
0 1 V
0 1 V
0 1 V
0 2 V
0 1 V
11 1 V
0 1 V
0 2 V
0 1 V
0 1 V
0 1 V
0 2 V
0 1 V
10 1 V
0 1 V
0 1 V
0 1 V
0 2 V
0 1 V
0 1 V
0 1 V
0 2 V
11 1 V
0 1 V
0 1 V
0 2 V
0 1 V
0 1 V
0 1 V
0 1 V
0 2 V
10 1 V
0 1 V
0 1 V
0 2 V
0 1 V
0 1 V
0 1 V
0 2 V
11 1 V
0 1 V
0 1 V
0 1 V
0 2 V
0 1 V
0 1 V
0 1 V
0 2 V
11 1 V
0 1 V
0 1 V
0 2 V
0 1 V
0 1 V
0 1 V
0 2 V
10 1 V
0 1 V
0 1 V
0 2 V
0 1 V
0 1 V
0 1 V
0 1 V
0 2 V
11 1 V
0 1 V
0 1 V
0 2 V
0 1 V
0 1 V
0 1 V
0 2 V
10 1 V
0 1 V
0 2 V
0 1 V
0 1 V
0 1 V
0 2 V
0 1 V
0 1 V
11 1 V
0 1 V
0 2 V
0 1 V
0 1 V
0 1 V
0 2 V
0 1 V
0 1 V
10 1 V
0 2 V
0 1 V
0 1 V
0 1 V
0 2 V
0 1 V
0 1 V
11 2 V
0 1 V
0 1 V
stroke 4449 3307 M
0 1 V
0 2 V
0 1 V
0 1 V
0 1 V
0 2 V
10 1 V
0 1 V
0 1 V
0 2 V
0 1 V
0 1 V
0 1 V
0 2 V
11 1 V
0 1 V
0 2 V
0 1 V
0 1 V
0 1 V
0 2 V
0 1 V
0 1 V
10 1 V
0 2 V
0 1 V
0 1 V
0 2 V
0 1 V
0 1 V
0 1 V
0 2 V
11 1 V
0 1 V
0 2 V
0 1 V
0 1 V
0 1 V
0 2 V
0 1 V
11 1 V
0 2 V
0 1 V
0 1 V
0 1 V
0 2 V
0 1 V
0 1 V
0 2 V
10 1 V
0 1 V
0 2 V
0 1 V
0 1 V
0 1 V
0 2 V
0 1 V
11 1 V
0 2 V
0 1 V
0 1 V
0 1 V
0 2 V
0 1 V
0 1 V
0 2 V
10 1 V
0 1 V
0 1 V
0 2 V
0 1 V
0 1 V
0 2 V
0 1 V
11 1 V
0 2 V
0 1 V
0 1 V
0 2 V
0 1 V
0 1 V
0 2 V
0 1 V
10 1 V
0 1 V
0 2 V
0 1 V
0 1 V
0 1 V
0 2 V
0 1 V
0 1 V
11 2 V
0 1 V
0 1 V
0 2 V
0 1 V
0 1 V
0 2 V
0 1 V
10 1 V
0 2 V
0 1 V
0 1 V
stroke 4575 3441 M
0 1 V
0 2 V
0 1 V
0 2 V
0 1 V
11 1 V
0 2 V
0 1 V
0 1 V
0 1 V
0 2 V
0 1 V
0 1 V
11 2 V
0 1 V
0 1 V
0 2 V
0 1 V
0 1 V
0 2 V
0 1 V
0 1 V
10 2 V
0 1 V
0 1 V
0 2 V
0 1 V
0 1 V
0 2 V
0 1 V
11 1 V
0 2 V
0 1 V
0 1 V
0 2 V
0 1 V
0 1 V
0 2 V
0 1 V
10 1 V
0 2 V
0 1 V
0 1 V
0 2 V
0 1 V
0 1 V
0 2 V
0 1 V
11 1 V
0 2 V
0 1 V
0 1 V
0 2 V
0 1 V
0 1 V
0 2 V
10 1 V
0 2 V
0 1 V
0 1 V
0 2 V
0 1 V
0 1 V
0 2 V
0 1 V
11 1 V
0 2 V
0 1 V
0 1 V
0 2 V
0 1 V
0 1 V
0 2 V
10 1 V
0 2 V
0 1 V
0 1 V
0 1 V
0 2 V
0 1 V
0 2 V
0 1 V
11 1 V
0 2 V
0 1 V
0 1 V
0 2 V
0 1 V
0 2 V
0 1 V
10 1 V
0 2 V
0 1 V
0 1 V
0 2 V
0 1 V
0 1 V
0 2 V
0 1 V
11 2 V
0 1 V
0 1 V
0 2 V
0 1 V
stroke 4702 3581 M
0 1 V
0 2 V
0 1 V
0 2 V
11 1 V
0 1 V
0 2 V
0 1 V
0 1 V
0 2 V
0 1 V
0 2 V
10 1 V
0 1 V
0 2 V
0 1 V
0 2 V
0 1 V
0 1 V
0 2 V
0 1 V
11 1 V
0 2 V
0 1 V
0 1 V
0 2 V
0 1 V
0 2 V
0 1 V
10 1 V
0 2 V
0 1 V
0 2 V
0 1 V
0 1 V
0 2 V
0 1 V
0 2 V
11 1 V
0 1 V
0 2 V
0 1 V
0 2 V
0 1 V
0 1 V
0 2 V
0 1 V
10 2 V
0 1 V
0 1 V
0 2 V
0 1 V
0 2 V
0 1 V
0 1 V
11 2 V
0 1 V
0 2 V
0 1 V
0 1 V
0 2 V
0 1 V
0 2 V
0 1 V
10 1 V
0 2 V
0 1 V
0 2 V
0 1 V
0 1 V
0 2 V
0 1 V
11 2 V
0 1 V
0 1 V
0 2 V
0 1 V
0 2 V
0 1 V
0 1 V
0 2 V
10 1 V
0 2 V
0 1 V
0 2 V
0 1 V
0 1 V
0 2 V
0 1 V
11 2 V
0 1 V
0 1 V
0 2 V
0 1 V
0 2 V
0 1 V
0 2 V
0 1 V
11 2 V
0 1 V
0 1 V
0 2 V
0 1 V
0 2 V
stroke 4829 3727 M
0 1 V
0 2 V
0 1 V
10 1 V
0 2 V
0 1 V
0 2 V
0 1 V
0 1 V
0 2 V
0 2 V
11 1 V
0 1 V
0 2 V
0 1 V
0 1 V
0 2 V
0 2 V
0 1 V
0 1 V
10 2 V
0 1 V
0 2 V
0 1 V
0 2 V
0 1 V
0 1 V
0 2 V
11 1 V
0 2 V
0 1 V
0 2 V
0 1 V
0 2 V
0 1 V
0 1 V
0 2 V
10 1 V
0 2 V
0 1 V
0 2 V
0 1 V
0 2 V
0 1 V
0 1 V
11 2 V
0 1 V
0 2 V
0 1 V
0 2 V
0 1 V
0 2 V
0 1 V
0 2 V
10 1 V
0 1 V
0 2 V
0 2 V
0 1 V
0 1 V
0 2 V
0 1 V
0 2 V
11 1 V
0 2 V
0 1 V
0 2 V
0 1 V
0 2 V
0 1 V
0 2 V
11 1 V
0 1 V
0 2 V
0 1 V
0 2 V
0 1 V
0 2 V
0 1 V
0 2 V
10 1 V
0 2 V
0 1 V
0 2 V
0 1 V
0 2 V
0 1 V
0 2 V
11 1 V
0 2 V
0 1 V
0 2 V
0 1 V
0 1 V
0 2 V
0 1 V
0 2 V
10 1 V
0 2 V
0 1 V
0 2 V
0 1 V
0 2 V
0 1 V
stroke 4955 3878 M
0 2 V
11 1 V
0 2 V
0 1 V
0 2 V
0 1 V
0 2 V
0 1 V
0 2 V
0 1 V
10 2 V
0 1 V
0 2 V
0 1 V
0 2 V
0 1 V
0 2 V
0 1 V
0 2 V
11 1 V
0 2 V
0 1 V
0 2 V
0 1 V
0 2 V
0 1 V
0 2 V
10 1 V
0 2 V
0 1 V
0 2 V
0 1 V
0 2 V
0 1 V
0 2 V
0 1 V
11 2 V
0 1 V
0 2 V
0 1 V
0 2 V
0 1 V
0 2 V
0 1 V
10 2 V
0 1 V
0 2 V
0 1 V
0 2 V
0 2 V
0 1 V
0 1 V
0 2 V
11 1 V
0 2 V
0 2 V
0 1 V
0 2 V
0 1 V
0 2 V
0 1 V
0 2 V
11 1 V
0 2 V
0 1 V
0 2 V
0 1 V
0 2 V
0 1 V
0 2 V
10 1 V
0 2 V
0 2 V
0 1 V
0 2 V
0 1 V
0 2 V
0 1 V
0 2 V
11 1 V
0 2 V
0 1 V
0 2 V
0 1 V
0 2 V
0 1 V
0 2 V
10 1 V
0 2 V
0 2 V
0 1 V
0 2 V
0 1 V
0 2 V
0 1 V
0 2 V
11 1 V
0 2 V
0 2 V
0 1 V
0 2 V
0 1 V
0 2 V
0 1 V
stroke 5082 4036 M
10 2 V
0 1 V
0 2 V
0 1 V
0 2 V
0 2 V
0 1 V
0 2 V
0 1 V
11 2 V
0 1 V
0 2 V
0 1 V
0 2 V
0 2 V
0 1 V
0 2 V
0 1 V
10 2 V
0 1 V
0 2 V
0 2 V
0 1 V
0 2 V
0 1 V
0 2 V
11 1 V
0 2 V
0 1 V
0 2 V
0 2 V
0 1 V
0 2 V
0 1 V
0 2 V
10 1 V
0 2 V
0 1 V
0 2 V
0 2 V
0 1 V
0 2 V
0 1 V
11 2 V
0 2 V
0 1 V
0 2 V
0 1 V
0 2 V
0 1 V
0 2 V
0 2 V
11 1 V
0 2 V
0 1 V
0 2 V
0 1 V
0 2 V
0 2 V
0 1 V
10 2 V
0 2 V
0 1 V
0 2 V
0 1 V
0 2 V
0 1 V
0 2 V
0 1 V
11 2 V
0 2 V
0 1 V
0 2 V
0 2 V
0 1 V
0 2 V
0 1 V
0 2 V
10 1 V
0 2 V
0 2 V
0 1 V
0 2 V
0 2 V
0 1 V
0 2 V
11 1 V
0 2 V
0 1 V
0 2 V
0 2 V
0 1 V
0 2 V
0 1 V
0 2 V
10 2 V
0 1 V
0 2 V
0 2 V
0 1 V
0 2 V
0 1 V
0 2 V
11 2 V
stroke 5219 4201 M
0 1 V
0 2 V
0 1 V
0 2 V
0 2 V
0 1 V
0 2 V
0 2 V
10 1 V
0 2 V
0 1 V
0 2 V
0 2 V
0 1 V
0 2 V
0 1 V
11 2 V
0 2 V
0 1 V
0 2 V
0 2 V
0 1 V
0 2 V
0 1 V
0 2 V
11 2 V
0 1 V
0 2 V
0 2 V
0 1 V
0 2 V
0 1 V
0 2 V
0 2 V
10 1 V
0 2 V
0 2 V
0 1 V
0 2 V
0 2 V
0 1 V
0 2 V
11 1 V
0 2 V
0 2 V
0 1 V
0 2 V
0 2 V
0 1 V
0 2 V
0 2 V
10 1 V
0 2 V
0 2 V
0 1 V
0 2 V
0 1 V
0 2 V
0 2 V
11 1 V
0 2 V
0 2 V
0 1 V
0 2 V
0 2 V
0 1 V
0 2 V
0 2 V
10 1 V
0 2 V
0 2 V
0 1 V
0 2 V
0 2 V
0 1 V
0 2 V
0 1 V
11 2 V
0 2 V
0 1 V
0 2 V
0 2 V
0 1 V
0 2 V
0 2 V
10 1 V
0 2 V
0 2 V
0 2 V
0 1 V
0 2 V
0 2 V
0 1 V
0 2 V
11 2 V
0 1 V
0 2 V
0 1 V
0 2 V
0 2 V
0 1 V
0 2 V
10 2 V
0 1 V
stroke 5345 4371 M
0 2 V
0 2 V
0 1 V
0 2 V
0 2 V
0 2 V
0 1 V
11 2 V
0 2 V
0 1 V
0 2 V
0 2 V
0 1 V
0 2 V
0 2 V
11 1 V
0 2 V
0 2 V
0 2 V
0 1 V
0 2 V
0 2 V
0 1 V
0 2 V
10 2 V
0 1 V
0 2 V
0 2 V
0 1 V
0 2 V
0 2 V
0 1 V
0 2 V
11 2 V
0 2 V
0 1 V
0 2 V
0 2 V
0 1 V
0 2 V
0 2 V
10 2 V
0 1 V
0 2 V
0 2 V
0 1 V
0 2 V
0 2 V
0 2 V
0 1 V
11 2 V
0 2 V
0 1 V
0 2 V
0 2 V
0 1 V
0 2 V
0 2 V
10 2 V
0 1 V
0 2 V
0 2 V
0 1 V
0 2 V
0 2 V
0 2 V
0 1 V
11 2 V
0 2 V
0 1 V
0 2 V
0 2 V
0 2 V
0 1 V
0 2 V
10 2 V
0 1 V
0 2 V
0 2 V
0 2 V
0 1 V
0 2 V
0 2 V
0 2 V
11 1 V
0 2 V
0 2 V
0 1 V
0 2 V
0 2 V
0 2 V
0 1 V
0 2 V
10 2 V
0 2 V
0 1 V
0 2 V
0 2 V
0 2 V
0 1 V
0 2 V
11 2 V
0 2 V
0 1 V
stroke 5472 4549 M
0 2 V
0 2 V
0 1 V
0 2 V
0 2 V
0 2 V
11 1 V
0 2 V
0 2 V
0 2 V
0 1 V
0 2 V
0 2 V
0 2 V
10 1 V
0 2 V
0 2 V
0 2 V
0 2 V
0 1 V
0 2 V
0 2 V
0 2 V
11 1 V
0 2 V
0 2 V
0 2 V
0 1 V
0 2 V
0 2 V
0 2 V
10 1 V
0 2 V
0 2 V
0 2 V
0 2 V
0 1 V
0 2 V
0 2 V
0 1 V
% End plot #2
% Begin plot #3
stroke
LT1
1538 1281 M
10 -13 V
11 -8 V
21 -7 V
10 -5 V
11 -4 V
10 -4 V
22 -3 V
10 -4 V
11 -3 V
10 -2 V
21 -3 V
11 -2 V
10 -2 V
21 -2 V
11 -3 V
11 -1 V
10 -2 V
21 -2 V
11 -2 V
10 -1 V
11 -2 V
21 -1 V
10 -1 V
11 -2 V
21 -1 V
11 -1 V
10 -1 V
11 -2 V
21 -1 V
10 -1 V
11 -1 V
11 -1 V
21 -1 V
10 -1 V
11 -1 V
21 -1 V
10 -1 V
11 -1 V
10 -1 V
22 0 V
10 -1 V
11 -1 V
10 -1 V
21 -1 V
11 0 V
10 -1 V
21 -1 V
11 -1 V
11 0 V
10 -1 V
21 0 V
11 -1 V
10 -1 V
11 0 V
21 -1 V
11 -1 V
10 0 V
21 -1 V
11 -1 V
10 0 V
11 -1 V
21 0 V
10 -1 V
11 0 V
11 -1 V
21 0 V
10 -1 V
11 0 V
21 -1 V
10 0 V
11 0 V
10 -1 V
22 0 V
10 -1 V
11 0 V
10 -1 V
21 0 V
11 0 V
10 -1 V
22 0 V
10 -1 V
11 0 V
10 0 V
21 -1 V
11 0 V
10 -1 V
11 0 V
21 0 V
11 -1 V
10 0 V
21 0 V
11 -1 V
10 0 V
11 0 V
21 -1 V
10 0 V
11 0 V
11 -1 V
21 0 V
10 0 V
11 -1 V
21 0 V
10 0 V
11 0 V
stroke 2930 1155 M
10 -1 V
22 0 V
10 0 V
11 -1 V
10 0 V
21 0 V
11 0 V
10 -1 V
22 0 V
10 0 V
11 0 V
10 -1 V
21 0 V
11 0 V
10 0 V
11 -1 V
21 0 V
11 0 V
10 0 V
21 0 V
11 -1 V
10 0 V
11 0 V
21 0 V
10 -1 V
11 0 V
11 0 V
21 0 V
10 0 V
11 -1 V
21 0 V
10 0 V
11 0 V
11 0 V
21 -1 V
10 0 V
11 0 V
10 0 V
21 0 V
11 -1 V
10 0 V
22 0 V
10 0 V
11 0 V
10 -1 V
21 0 V
11 0 V
10 0 V
11 0 V
21 0 V
11 0 V
10 -1 V
21 0 V
11 0 V
10 0 V
11 0 V
21 0 V
10 0 V
11 -1 V
11 0 V
21 0 V
10 0 V
11 0 V
21 0 V
10 -1 V
11 0 V
11 0 V
21 0 V
10 0 V
11 0 V
10 0 V
21 0 V
11 -1 V
10 0 V
22 0 V
10 0 V
11 0 V
10 0 V
21 0 V
11 -1 V
10 0 V
11 0 V
21 0 V
11 0 V
10 0 V
21 0 V
11 0 V
10 0 V
11 -1 V
21 0 V
11 0 V
10 0 V
11 0 V
21 0 V
10 0 V
11 0 V
21 -1 V
10 0 V
11 0 V
11 0 V
21 0 V
10 0 V
11 0 V
10 0 V
stroke 4322 1137 M
21 0 V
11 0 V
10 -1 V
22 0 V
10 0 V
11 0 V
10 0 V
21 0 V
11 0 V
10 0 V
11 0 V
21 0 V
11 0 V
10 0 V
21 -1 V
11 0 V
10 0 V
11 0 V
21 0 V
11 0 V
10 0 V
11 0 V
21 0 V
10 0 V
11 -1 V
21 0 V
10 0 V
11 0 V
11 0 V
21 0 V
10 0 V
11 0 V
10 0 V
21 0 V
11 0 V
10 0 V
22 0 V
10 0 V
11 -1 V
10 0 V
21 0 V
11 0 V
10 0 V
11 0 V
21 0 V
11 0 V
10 0 V
21 0 V
11 0 V
10 0 V
11 -1 V
21 0 V
11 0 V
10 0 V
11 0 V
21 0 V
10 0 V
11 0 V
21 0 V
10 0 V
11 0 V
11 0 V
21 0 V
10 0 V
11 0 V
10 0 V
21 -1 V
11 0 V
11 0 V
21 0 V
10 0 V
11 0 V
10 0 V
21 0 V
11 0 V
10 0 V
11 0 V
21 0 V
11 0 V
10 0 V
21 0 V
11 -1 V
10 0 V
11 0 V
21 0 V
11 0 V
10 0 V
11 0 V
21 0 V
10 0 V
11 0 V
21 0 V
10 0 V
11 0 V
11 0 V
21 0 V
10 0 V
11 0 V
10 0 V
21 0 V
11 0 V
11 0 V
21 -1 V
10 0 V
stroke 5725 1129 M
11 0 V
10 0 V
21 0 V
11 0 V
10 0 V
11 0 V
21 0 V
11 0 V
10 0 V
21 0 V
11 0 V
10 0 V
11 0 V
21 0 V
11 0 V
10 0 V
11 0 V
21 0 V
10 0 V
11 0 V
21 0 V
11 0 V
10 -1 V
11 0 V
21 0 V
10 0 V
11 0 V
10 0 V
21 0 V
11 0 V
11 0 V
21 0 V
10 0 V
11 0 V
10 0 V
21 0 V
11 0 V
10 0 V
11 0 V
21 0 V
11 0 V
10 0 V
21 0 V
11 0 V
10 0 V
11 -1 V
21 0 V
11 0 V
10 0 V
11 0 V
21 0 V
10 0 V
11 0 V
21 0 V
11 0 V
10 0 V
11 0 V
21 0 V
10 0 V
11 0 V
10 0 V
21 0 V
11 0 V
% End plot #3
% Begin plot #4
1538 1316 M
10 17 V
11 12 V
21 10 V
10 9 V
11 9 V
10 9 V
22 7 V
10 8 V
11 7 V
10 7 V
21 7 V
11 7 V
10 7 V
21 6 V
11 7 V
11 7 V
10 6 V
21 6 V
11 7 V
10 6 V
11 6 V
21 6 V
10 6 V
11 7 V
21 6 V
11 6 V
10 6 V
11 6 V
21 6 V
10 6 V
11 6 V
11 6 V
21 6 V
10 6 V
11 7 V
21 5 V
10 7 V
11 6 V
10 6 V
22 6 V
stroke 2076 1599 M
10 6 V
11 6 V
10 6 V
21 6 V
11 7 V
10 6 V
21 6 V
11 6 V
11 6 V
10 6 V
21 7 V
11 6 V
10 6 V
11 6 V
21 7 V
11 6 V
10 6 V
21 7 V
11 6 V
10 6 V
11 7 V
21 6 V
10 7 V
11 6 V
11 7 V
21 6 V
10 7 V
11 6 V
21 7 V
10 6 V
11 7 V
10 6 V
22 7 V
10 7 V
11 7 V
10 6 V
21 7 V
11 7 V
10 7 V
22 6 V
10 7 V
11 7 V
10 7 V
21 7 V
11 7 V
10 7 V
11 7 V
21 7 V
11 7 V
10 7 V
21 7 V
11 7 V
10 7 V
11 8 V
21 7 V
10 7 V
11 8 V
11 7 V
21 7 V
10 7 V
11 8 V
21 7 V
10 8 V
11 7 V
10 8 V
22 7 V
10 8 V
11 7 V
10 8 V
21 8 V
11 7 V
10 8 V
22 8 V
10 8 V
11 7 V
10 8 V
21 8 V
11 8 V
10 8 V
11 8 V
21 8 V
11 8 V
10 8 V
21 8 V
11 8 V
10 8 V
11 9 V
21 8 V
10 8 V
11 8 V
11 9 V
21 8 V
10 8 V
11 9 V
21 8 V
10 9 V
11 8 V
11 9 V
21 8 V
10 9 V
11 8 V
10 9 V
21 9 V
11 9 V
stroke 3468 2352 M
10 8 V
22 9 V
10 9 V
11 9 V
10 9 V
21 9 V
11 9 V
10 9 V
11 9 V
21 9 V
11 9 V
10 9 V
21 10 V
11 9 V
10 9 V
11 10 V
21 9 V
10 9 V
11 10 V
11 9 V
21 10 V
10 9 V
11 10 V
21 10 V
10 9 V
11 10 V
11 10 V
21 9 V
10 10 V
11 10 V
10 10 V
21 10 V
11 10 V
10 10 V
22 10 V
10 10 V
11 10 V
10 10 V
21 10 V
11 11 V
10 10 V
11 10 V
21 11 V
11 10 V
10 11 V
21 10 V
11 11 V
10 10 V
11 11 V
21 10 V
11 11 V
10 11 V
11 11 V
21 11 V
10 10 V
11 11 V
21 11 V
10 11 V
11 11 V
11 11 V
21 12 V
10 11 V
11 11 V
10 11 V
21 12 V
11 11 V
10 11 V
22 12 V
10 11 V
11 12 V
10 11 V
21 12 V
11 12 V
10 11 V
11 12 V
21 12 V
11 12 V
10 11 V
21 13 V
11 12 V
10 12 V
11 12 V
21 12 V
11 12 V
10 12 V
11 12 V
21 13 V
10 12 V
11 13 V
21 12 V
10 12 V
11 13 V
11 13 V
21 12 V
10 13 V
11 13 V
10 13 V
21 12 V
11 13 V
10 13 V
22 13 V
10 14 V
11 13 V
10 13 V
stroke 4860 3479 M
21 13 V
11 13 V
10 14 V
11 13 V
21 13 V
11 14 V
10 13 V
21 14 V
11 13 V
10 14 V
11 14 V
21 14 V
11 14 V
10 14 V
11 14 V
21 14 V
10 14 V
11 14 V
21 14 V
10 14 V
11 14 V
11 15 V
21 14 V
10 15 V
11 14 V
10 15 V
21 14 V
11 15 V
11 15 V
21 15 V
10 15 V
11 14 V
10 15 V
21 15 V
11 15 V
10 16 V
11 15 V
21 15 V
11 15 V
10 16 V
21 15 V
11 16 V
10 15 V
11 16 V
21 16 V
11 16 V
10 15 V
11 16 V
21 16 V
10 16 V
11 16 V
21 16 V
10 17 V
11 16 V
11 16 V
21 17 V
10 16 V
11 17 V
10 16 V
21 17 V
11 17 V
11 16 V
21 17 V
10 17 V
11 17 V
10 17 V
21 17 V
11 18 V
10 17 V
11 17 V
21 18 V
11 17 V
10 18 V
21 17 V
5 8 V
% End plot #4
stroke
LCw setrgbcolor
1.000 2936 3856 3423 700 BoxColFill
% Begin plot #5
7.000 UL
LT0
LCb setrgbcolor
5036 4381 M
[ [(Times-Roman) 350.0 0.0 true true 0 (Multilevel)]
] -116.7 MRshow
LT0
5246 4381 M
903 0 V
% End plot #5
% Begin plot #6
% End plot #6
% Begin plot #7
stroke
LT1
LCb setrgbcolor
5036 4031 M
[ [(Times-Roman) 350.0 0.0 true true 0 (Dicke)]
] -116.7 MRshow
LT1
5246 4031 M
903 0 V
% End plot #7
% Begin plot #8
% End plot #8
stroke
1.000 UL
LTb
1295 4619 N
0 -3499 V
5274 0 V
0 3499 V
-5274 0 V
Z stroke
1.000 UP
1.000 UL
LTb
stroke
grestore
end
showpage
%%Trailer
%%DocumentFonts: Symbol Times-Roman
